{
    "hfov": 110,
    "pitch": 0.0,
    "yaw": 0.0,
    "type": "equirectangular",
    "panorama": "https://actualquak.github.io/School-View/images/Down-QuadNW.jpg",
    "hotSpots": [{
		"pitch": -0.1,
        "yaw": 132.9,
        "type": "scene",
        "text": "DownQuadCen",
        "sceneId": "DownQuadCen",
		"targetPitch" : "same",
		"targetYaw" : "same",
		"targetHfov" : "same"
    },
	{
	    "pitch": -10.1,
        "yaw": 132.9,
        "type": "scene",
        "text": "DownNW",
        "sceneId": "DownNW",
		"targetPitch" : "same",
		"targetYaw" : "same",
		"targetHfov" : "same"
    }]
}
