{
    "hfov": 110,
    "pitch": 0.0,
    "yaw": 0.0,
    "type": "equirectangular",
    "panorama": "https://actualquak.github.io/School-View/images/Up-Foyer.jpg",
    "hotSpots": [{
		"pitch": -2.1,
        "yaw": 132.9,
        "type": "scene",
        "text": "Airport",
        "sceneId": "DownCenNE",
		"targetPitch" : "same",
		"targetYaw" : "same",
		"targetHfov" : "same"
    }]
}
