{
    "hfov": 110,
    "pitch": 0.0,
    "yaw": 0.0,
    "type": "equirectangular",
    "panorama": "https://actualquak.github.io/School-View/images/Up-SE.jpg",
    "hotSpots": [{
		"pitch": -0.1,
        "yaw": 132.9,
        "type": "scene",
        "text": "MidSE",
        "sceneId": "MidSE",
		"targetPitch" : "same",
		"targetYaw" : "same",
		"targetHfov" : "same"
    },
	{
		"pitch": -10.1,
        "yaw": 132.9,
        "type": "scene",
        "text": "UpNE",
        "sceneId": "UpNE",
		"targetPitch" : "same",
		"targetYaw" : "same",
		"targetHfov" : "same"
    }]
}
